<!DOCTYPE svg PUBLIC "-//W3C//DTD SVG 20010904//EN" "http://www.w3.org/TR/2001/REC-SVG-20010904/DTD/svg10.dtd">
<svg version="1.0" xmlns="http://www.w3.org/2000/svg" width="200px" height="200px" viewBox="0 0 2000 2000" preserveAspectRatio="xMidYMid meet">
<g id="layer101" fill="#e1e1e1" stroke="none">
 <path d="M195 1651 c-28 -12 -75 -61 -86 -89 -5 -13 -9 -46 -9 -74 0 -61 26 -107 78 -140 l37 -23 780 0 c867 0 824 -3 876 68 52 72 36 186 -34 238 l-32 24 -795 2 c-437 1 -804 -2 -815 -6z m1605 -29 c102 -51 106 -192 8 -252 -32 -19 -52 -20 -808 -20 -756 0 -776 1 -808 20 -98 60 -94 201 8 252 32 17 92 18 800 18 708 0 768 -1 800 -18z"/>
 <path d="M740 1475 l0 -86 93 3 92 3 3 33 c5 51 -11 62 -89 62 l-69 0 0 35 c0 24 -5 35 -15 35 -12 0 -15 -16 -15 -85z m148 -14 c8 -5 12 -17 10 -27 -3 -16 -14 -20 -66 -22 l-62 -3 0 31 c0 30 1 30 53 30 28 0 58 -4 65 -9z"/>
 <path d="M950 1475 c0 -69 3 -85 15 -85 12 0 15 16 15 85 0 69 -3 85 -15 85 -12 0 -15 -16 -15 -85z"/>
 <path d="M1018 1549 c-22 -13 -23 -55 -2 -63 9 -3 35 -6 60 -6 34 0 42 -3 38 -15 -7 -17 -74 -21 -74 -5 0 6 -7 10 -15 10 -26 0 -16 -30 12 -41 37 -14 90 -3 103 21 5 10 10 39 10 63 l0 44 -57 1 c-32 1 -66 -3 -75 -9z m96 -28 c8 -12 -41 -23 -65 -16 -10 4 -19 11 -19 16 0 12 77 12 84 0z"/>
 <path d="M1170 1496 c0 -55 3 -65 18 -65 9 0 31 -3 48 -7 18 -3 41 -1 53 5 18 10 21 21 21 71 0 46 -3 60 -14 60 -11 0 -16 -15 -18 -52 -3 -50 -4 -53 -33 -56 -37 -5 -55 19 -55 70 0 21 -4 38 -10 38 -6 0 -10 -28 -10 -64z"/>
 <path d="M1330 1545 c0 -8 7 -15 15 -15 8 0 15 7 15 15 0 8 -7 15 -15 15 -8 0 -15 -7 -15 -15z"/>
 <path d="M1336 1479 c-11 -55 -7 -89 9 -89 12 0 15 13 15 60 0 64 -13 80 -24 29z"/>
 <path d="M694 1258 c54 -186 58 -238 20 -289 -48 -62 -86 -159 -92 -229 -9 -129 44 -273 121 -330 153 -113 470 -85 578 51 59 74 84 145 86 243 2 79 5 93 30 128 62 89 61 86 28 115 -19 17 -29 34 -27 46 3 18 -3 39 -29 89 -5 10 -9 33 -9 52 0 67 -57 93 -167 76 -35 -6 -68 -8 -73 -5 -5 3 -11 19 -15 35 -7 32 -19 45 -34 35 -6 -3 -4 -22 5 -47 8 -23 13 -42 12 -43 -2 -1 -20 -12 -41 -24 -21 -13 -36 -28 -34 -35 5 -16 14 -14 79 17 78 38 160 51 205 32 33 -14 35 -16 28 -53 -5 -29 -2 -42 10 -52 11 -9 12 -16 4 -26 -8 -9 -5 -15 10 -23 17 -9 19 -16 11 -36 -10 -25 -7 -31 33 -58 17 -12 16 -16 -17 -66 -20 -29 -36 -56 -37 -60 0 -3 -2 -44 -3 -91 -5 -204 -128 -323 -349 -337 -160 -11 -279 43 -331 149 -31 64 -50 156 -44 219 5 50 48 150 92 214 26 37 28 45 23 115 -7 95 -42 210 -64 210 -11 0 -14 -6 -9 -22z"/>
 <path d="M760 1267 c0 -6 9 -43 20 -81 10 -38 22 -94 26 -125 6 -55 5 -58 -41 -125 -84 -123 -116 -260 -76 -321 37 -54 40 -60 46 -89 9 -43 64 -93 111 -101 21 -4 57 -16 80 -26 52 -25 110 -24 152 1 18 11 44 20 58 20 55 0 144 64 144 104 0 7 13 25 30 41 55 53 63 135 18 197 -30 44 -73 61 -135 56 -34 -3 -56 -1 -61 7 -16 26 -59 45 -103 45 -45 0 -47 1 -53 34 -4 19 -31 112 -62 205 l-55 171 -49 0 c-33 0 -50 -4 -50 -13z m118 -150 c23 -71 51 -163 62 -205 11 -42 27 -83 36 -92 14 -13 17 -13 28 3 25 32 84 12 124 -42 27 -36 57 -43 49 -10 -5 20 -3 21 39 16 25 -2 54 -13 66 -23 30 -27 49 -78 42 -112 -7 -35 -68 -99 -78 -83 -8 12 -46 15 -46 4 0 -4 9 -16 20 -28 12 -13 18 -29 14 -38 -10 -27 -68 -57 -111 -57 -24 0 -46 -6 -53 -15 -18 -21 -75 -29 -110 -15 -16 7 -27 16 -24 22 6 10 -14 38 -27 38 -5 0 -9 -7 -9 -16 0 -30 -70 -10 -107 31 -35 37 -44 75 -17 75 9 0 14 7 12 18 -2 10 -13 17 -27 17 -37 1 -62 41 -59 94 2 37 6 45 20 43 22 -4 33 16 17 34 -10 12 -9 13 4 9 24 -10 31 14 10 38 -16 20 -16 20 0 8 28 -22 46 2 22 29 -20 23 -14 26 15 8 26 -16 37 -3 17 20 -23 25 -21 35 3 20 24 -15 38 -3 23 21 -10 16 -9 18 8 14 22 -6 26 16 7 35 -10 10 -10 15 2 22 12 7 12 13 1 33 -7 14 -10 30 -6 37 4 6 -1 27 -10 46 -9 19 -14 38 -11 43 3 5 -1 22 -9 37 -20 38 -19 56 3 52 12 -2 29 -38 60 -131z"/>
 <path d="M930 802 c0 -10 33 -42 44 -42 4 0 6 10 4 23 -2 14 -11 23 -25 25 -13 2 -23 -1 -23 -6z"/>
 <path d="M920 755 c0 -16 27 -32 37 -21 7 7 -16 36 -28 36 -5 0 -9 -7 -9 -15z"/>
 <path d="M1112 734 c4 -20 34 -41 45 -31 10 11 -11 41 -31 45 -12 3 -17 -2 -14 -14z"/>
 <path d="M780 692 c0 -4 5 -13 12 -20 18 -18 28 -15 28 8 0 13 -7 20 -20 20 -11 0 -20 -4 -20 -8z"/>
 <path d="M1090 692 c0 -4 5 -13 12 -20 18 -18 28 -15 28 8 0 13 -7 20 -20 20 -11 0 -20 -4 -20 -8z"/>
 <path d="M772 644 c4 -20 34 -41 44 -31 8 8 -24 47 -38 47 -5 0 -8 -7 -6 -16z"/>
 <path d="M944 649 c-10 -16 22 -43 42 -35 16 6 16 8 -1 26 -20 23 -31 25 -41 9z"/>
 <path d="M895 640 c-8 -13 13 -40 31 -40 17 0 18 22 2 38 -15 15 -25 15 -33 2z"/>
 <path d="M1012 634 c2 -11 11 -20 22 -22 13 -3 17 1 14 14 -2 11 -11 20 -22 22 -13 3 -17 -1 -14 -14z"/>
 <path d="M862 603 c4 -21 33 -25 33 -3 0 8 -8 16 -18 18 -14 3 -18 -1 -15 -15z"/>
 <path d="M1150 562 c0 -14 39 -46 47 -38 4 4 2 15 -3 24 -12 19 -44 29 -44 14z"/>
 <path d="M1120 530 c0 -13 7 -20 20 -20 23 0 26 10 8 28 -18 18 -28 15 -28 -8z"/>
 <path d="M962 524 c2 -11 11 -20 22 -22 13 -3 17 1 14 14 -2 11 -11 20 -22 22 -13 3 -17 -1 -14 -14z"/>
 <path d="M920 502 c0 -10 33 -42 44 -42 4 0 6 10 4 23 -2 14 -11 23 -25 25 -13 2 -23 -1 -23 -6z"/>
 </g>

</svg>